\relax 
\providecommand \oddpage@label [2]{}
\citation{book:1}
\citation{article:15}
\@writefile{toc}{\contentsline {chapter}{\numberline {1}Classical Compression Algorithms}{4}}
\@writefile{lof}{\addvspace {10\p@ }}
\@writefile{lot}{\addvspace {10\p@ }}
\@writefile{loa}{\addvspace {10\p@ }}
\@writefile{toc}{\contentsline {section}{\numberline {1.1}Background}{4}}
\citation{article:13}
\citation{book:1}
\@writefile{toc}{\contentsline {section}{\numberline {1.2}Huffman-Coding}{5}}
\citation{article:11}
\@writefile{toc}{\contentsline {subsection}{\numberline {1.2.1}Huffman-Codes}{6}}
\@writefile{lof}{\contentsline {figure}{\numberline {1.1}{\ignorespaces Huffman Tree}}{8}}
\newlabel{fig:image1}{{1.1}{8}}
\citation{article:11}
\@writefile{lof}{\contentsline {figure}{\numberline {1.2}{\ignorespaces Huffman Algorithm}}{9}}
\newlabel{fig:image1}{{1.2}{9}}
\@writefile{lof}{\contentsline {figure}{\numberline {1.3}{\ignorespaces Huffman Tree Example}}{10}}
\newlabel{fig:image1}{{1.3}{10}}
\@writefile{toc}{\contentsline {subsection}{\numberline {1.2.2}Properties of Huffman Codes}{11}}
\@writefile{toc}{\contentsline {section}{\numberline {1.3}Integer Codes}{12}}
\@writefile{toc}{\contentsline {section}{\numberline {1.4}Dictionary based encoding}{13}}
\@writefile{toc}{\contentsline {subsection}{\numberline {1.4.1}Lempel-Ziv-Welch}{13}}
\@writefile{toc}{\contentsline {subsection}{\numberline {1.4.2}Algorithm}{13}}
\@writefile{lof}{\contentsline {figure}{\numberline {1.4}{\ignorespaces LZW Algorithm}}{15}}
\newlabel{fig:image1}{{1.4}{15}}
\citation{book:4}
\@writefile{toc}{\contentsline {subsection}{\numberline {1.4.3}History}{16}}
\citation{article:6}
\citation{thesis:1}
\citation{article:6}
\citation{article:8}
\@writefile{toc}{\contentsline {chapter}{\numberline {2}Arithmetic coding}{17}}
\@writefile{lof}{\addvspace {10\p@ }}
\@writefile{lot}{\addvspace {10\p@ }}
\@writefile{loa}{\addvspace {10\p@ }}
\@writefile{toc}{\contentsline {section}{\numberline {2.1}Background}{17}}
\@writefile{toc}{\contentsline {section}{\numberline {2.2}Coding}{18}}
\@writefile{toc}{\contentsline {section}{\numberline {2.3}Algorithm}{18}}
\citation{article:3}
\citation{article:2}
\@writefile{toc}{\contentsline {chapter}{\numberline {3}Data transmission}{19}}
\@writefile{lof}{\addvspace {10\p@ }}
\@writefile{lot}{\addvspace {10\p@ }}
\@writefile{loa}{\addvspace {10\p@ }}
\@writefile{toc}{\contentsline {section}{\numberline {3.1}Introduction}{19}}
\@writefile{lof}{\contentsline {figure}{\numberline {3.1}{\ignorespaces Standard Data Transmission Scheme}}{20}}
\newlabel{fig:image1}{{3.1}{20}}
\@writefile{lof}{\contentsline {figure}{\numberline {3.2}{\ignorespaces Proposed Data Transmission Scheme}}{21}}
\newlabel{fig:image1}{{3.2}{21}}
\@writefile{toc}{\contentsline {section}{\numberline {3.2}Background}{22}}
\@writefile{lof}{\contentsline {figure}{\numberline {3.3}{\ignorespaces Evolution of Data Storage Devices}}{23}}
\newlabel{fig:image2}{{3.3}{23}}
\@writefile{toc}{\contentsline {section}{\numberline {3.3}Disk Image Structure}{24}}
\@writefile{lof}{\contentsline {figure}{\numberline {3.4}{\ignorespaces Disk Image Structure}}{24}}
\newlabel{fig:image3}{{3.4}{24}}
\@writefile{toc}{\contentsline {chapter}{\numberline {4}Algorithm}{25}}
\@writefile{lof}{\addvspace {10\p@ }}
\@writefile{lot}{\addvspace {10\p@ }}
\@writefile{loa}{\addvspace {10\p@ }}
\@writefile{toc}{\contentsline {section}{\numberline {4.1}Dictionaries}{25}}
\@writefile{toc}{\contentsline {section}{\numberline {4.2}Duplicated Data and Representation}{26}}
\@writefile{toc}{\contentsline {section}{\numberline {4.3}Continuous Data Transmission}{26}}
\@writefile{toc}{\contentsline {section}{\numberline {4.4}Compressed Data Transmission}{27}}
\@writefile{toc}{\contentsline {section}{\numberline {4.5}The Scheme}{27}}
\@writefile{lof}{\contentsline {figure}{\numberline {4.1}{\ignorespaces Proposed Data Transfer Scheme}}{27}}
\newlabel{fig:image3}{{4.1}{27}}
\@writefile{toc}{\contentsline {chapter}{\numberline {5}Experiments}{28}}
\@writefile{lof}{\addvspace {10\p@ }}
\@writefile{lot}{\addvspace {10\p@ }}
\@writefile{loa}{\addvspace {10\p@ }}
\@writefile{toc}{\contentsline {section}{\numberline {5.1}Method}{28}}
\@writefile{toc}{\contentsline {section}{\numberline {5.2}Sample Data}{29}}
\@writefile{lof}{\contentsline {figure}{\numberline {5.1}{\ignorespaces Disk Images Used on Experiments}}{29}}
\newlabel{fig:image3}{{5.1}{29}}
\@writefile{toc}{\contentsline {section}{\numberline {5.3}Results}{30}}
\@writefile{lof}{\contentsline {figure}{\numberline {5.2}{\ignorespaces Reduction of Data transmitted}}{30}}
\newlabel{fig:image3}{{5.2}{30}}
\@writefile{lof}{\contentsline {figure}{\numberline {5.3}{\ignorespaces Table of final compression}}{31}}
\newlabel{fig:image3}{{5.3}{31}}
\@writefile{toc}{\contentsline {section}{\numberline {5.4}Result Discussion}{32}}
\@writefile{toc}{\contentsline {chapter}{\numberline {6}Conclusion and Future Work}{33}}
\@writefile{lof}{\addvspace {10\p@ }}
\@writefile{lot}{\addvspace {10\p@ }}
\@writefile{loa}{\addvspace {10\p@ }}
\@writefile{toc}{\contentsline {section}{\numberline {6.1}Introduction}{33}}
\@writefile{toc}{\contentsline {section}{\numberline {6.2}Disk Images}{33}}
\@writefile{toc}{\contentsline {section}{\numberline {6.3}Data Transmission}{34}}
\@writefile{toc}{\contentsline {section}{\numberline {6.4}Background Work}{34}}
\@writefile{toc}{\contentsline {section}{\numberline {6.5}Further Software Work}{34}}
\citation{*}
\bibdata{rfs2}
\bibcite{book:1}{1}
\bibcite{article:15}{2}
\bibcite{article:13}{3}
\bibcite{article:11}{4}
\bibcite{book:4}{5}
\bibcite{article:6}{6}
\bibcite{thesis:1}{7}
\bibcite{article:8}{8}
\bibcite{article:3}{9}
\bibcite{article:2}{10}
\bibcite{article:1}{11}
\bibcite{article:4}{12}
\bibcite{article:5}{13}
\bibcite{article:7}{14}
\bibcite{article:9}{15}
\bibcite{article:10}{16}
\bibcite{article:12}{17}
\bibcite{article:14}{18}
\bibcite{thesis:2}{19}
\bibcite{inbook:1}{20}
\bibcite{inbook:2}{21}
\bibcite{inbook:3}{22}
\bibcite{inbook:4}{23}
\bibcite{inbook:5}{24}
\bibcite{inbook:6}{25}
\bibcite{book:2}{26}
\bibcite{book:3}{27}
\bibcite{book:5}{28}
\bibcite{misc:1}{29}
\bibstyle{ieeetr}
